Project 2: Data Mining, Classification, Prediction
…
My binary variable highschool is given a 0 if the state have a share of population with a high school degree below the mean and 1 if the state have a population with a high school degree above the mean.

There are 765 observations in my dataset and for the binary variable i have 23 observations below the mean of share of population with a high school degree and 28 observations above the mean.

# Load packages
library(tidyverse)
library(fivethirtyeight)
library(cluster)
library(dplyr)
library(ggplot2)

# Show dataframe
print(hate_crimes)

## # A tibble: 51 x 13
##    state          state_abbrev median_house_inc share_unemp_seas share_pop_metro
##    <chr>          <chr>                   <int>            <dbl>           <dbl>
##  1 Alabama        AL                      42278            0.06             0.64
##  2 Alaska         AK                      67629            0.064            0.63
##  3 Arizona        AZ                      49254            0.063            0.9 
##  4 Arkansas       AR                      44922            0.052            0.69
##  5 California     CA                      60487            0.059            0.97
##  6 Colorado       CO                      60940            0.04             0.8 
##  7 Connecticut    CT                      70161            0.052            0.94
##  8 Delaware       DE                      57522            0.049            0.9 
##  9 District of C DC                      68277            0.067            1   
## 10 Florida        FL                      46140            0.052            0.96
## #  with 41 more rows, and 8 more variables: share_pop_hs <dbl>,
## #   share_non_citizen <dbl>, share_white_poverty <dbl>, gini_index <dbl>,
## #   share_non_white <dbl>, share_vote_trump <dbl>,
## #   hate_crimes_per_100k_splc <dbl>, avg_hatecrimes_per_100k_fbi <dbl>
…
